{
  "name": "Scanner",
  "keywords": "keypad",
  "description": "Scans pins connected to NxN keypad and returns code for key pressed.",
  "authors":
  [
    {
      "name": "John Z",
      "email": "coder.house.z@gmail.com",
      "maintainer": true
    }
  ],
  "repository":
  {
    "type": "git",
    "url": "https://bitbucket.org/coderhousez/arduino.git"
  },
  "version":"0.0.1",
  "frameworks": "arduino",
  "platforms": "*",
  "export": {
    "include": "libraries/Scanner"
  }
}
